{
    "MCVersion": 1.5,
    "Plugins": {
        "CraftBook": {
            "Beta": false,
            "Date": 1,
            "Dev": false,
            "Direct": "http://dev.bukkit.org/media/files/712/274/CraftBook_3.6.9.zip",
            "FileName": "CraftBook v3.6.9",
            "Home": "http://dev.bukkit.org/bukkit-plugins/craftbook/",
            "MCVers": 1.5,
            "Match": "legacy"
        },
        "Disguise Craft": {
            "Beta": false,
            "Date": 1,
            "Dev": false,
            "Direct": "http://dev.bukkit.org/media/files/708/825/DisguiseCraft.jar",
            "FileName": "v4.8",
            "Home": "http://dev.bukkit.org/bukkit-plugins/disguisecraft/",
            "MCVers": 1.5,
            "Match": "legacy"
        },
        "Essentials": {
            "Beta": false,
            "Date": 1,
            "Dev": false,
            "Direct": "http://dev.bukkit.org/media/files/711/777/Essentials.zip",
            "FileName": "Essentials-2.11.1",
            "Home": "http://dev.bukkit.org/bukkit-plugins/essentials/",
            "MCVers": 1.5,
            "Match": "legacy"
        },
        "Head Hunter": {
            "Beta": false,
            "Date": 1,
            "Dev": false,
            "Direct": "http://dev.bukkit.org/media/files/700/91/HeadHunter.jar",
            "FileName": "v1.4.0",
            "Home": "http://dev.bukkit.org/bukkit-plugins/headhunter/",
            "MCVers": 1.5,
            "Match": "legacy"
        },
        "HeroChat": {
            "Beta": false,
            "Date": 1,
            "Dev": false,
            "Direct": "http://dev.bukkit.org/media/files/696/788/Herochat.jar",
            "FileName": "Herochat v5.6.6",
            "Home": "http://dev.bukkit.org/bukkit-plugins/herochat/",
            "MCVers": 1.5,
            "Match": "legacy"
        },
        "Item Renamer": {
            "Beta": false,
            "Date": 1,
            "Dev": false,
            "Direct": "http://dev.bukkit.org/media/files/711/314/ItemRenamer-1.7.0.jar",
            "FileName": "ItemRenamer 1.7.0",
            "Home": "http://dev.bukkit.org/bukkit-plugins/itemrenamer/",
            "MCVers": 1.5,
            "Match": "legacy"
        },
        "LWC": {
            "Beta": true,
            "Date": 1,
            "Dev": false,
            "Direct": "http://dev.bukkit.org/media/files/684/272/LWC.jar",
            "FileName": "LWC 4.3.2 Beta 3",
            "Home": "http://dev.bukkit.org/bukkit-plugins/lwc/",
            "MCVers": 1.5,
            "Match": "legacy"
        },
        "Multiverse": {
            "Beta": true,
            "Date": 1,
            "Dev": false,
            "Direct": "http://dev.bukkit.org/media/files/650/717/Multiverse-Core-2.5.jar",
            "FileName": "2.5-b641 (beta)",
            "Home": "http://dev.bukkit.org/bukkit-plugins/multiverse-core/",
            "MCVers": 1.4,
            "Match": "legacy"
        },
        "PermissionsEx": {
            "Beta": false,
            "Date": 1,
            "Dev": false,
            "Direct": "http://dev.bukkit.org/media/files/703/728/mcMMO.jar",
            "FileName": "mcMMO 1.4.06-beta5",
            "Home": "http://dev.bukkit.org/bukkit-plugins/permissionsex/",
            "MCVers": 1.5,
            "Match": "legacy"
        },
        "ProtocolLib": {
            "Beta": false,
            "Date": 1,
            "Dev": false,
            "Direct": "http://dev.bukkit.org/media/files/712/442/ProtocolLib-2.4.5.jar",
            "FileName": "ProtocolLib 2.4.5",
            "Home": "http://dev.bukkit.org/bukkit-plugins/protocollib/",
            "MCVers": 1.5,
            "Match": "legacy"
        },
        "Vault": {
            "Beta": false,
            "Date": 1,
            "Dev": false,
            "Direct": "http://dev.bukkit.org/media/files/694/78/Vault.jar",
            "FileName": "Vault 1.2.25",
            "Home": "http://dev.bukkit.org/bukkit-plugins/vault/",
            "MCVers": 1.5,
            "Match": "legacy"
        },
        "Votifier": {
            "Beta": false,
            "Date": 1,
            "Dev": false,
            "Direct": "http://dev.bukkit.org/media/files/619/372/Votifier.jar",
            "FileName": "Votifier 1.9",
            "Home": "http://dev.bukkit.org/bukkit-plugins/votifier/",
            "MCVers": 1.5,
            "Match": "legacy"
        },
        "World Border": {
            "Beta": false,
            "Date": 1,
            "Dev": false,
            "Direct": "http://dev.bukkit.org/media/files/694/78/Vault.jar",
            "FileName": "Vault 1.2.25",
            "Home": "http://dev.bukkit.org/bukkit-plugins/vault/",
            "MCVers": 1.5,
            "Match": "legacy"
        },
        "World Edit": {
            "Beta": false,
            "Date": 1,
            "Dev": false,
            "Direct": "http://dev.bukkit.org/media/files/698/942/worldedit-5.5.6.zip",
            "FileName": "WorldEdit 5.5.6",
            "Home": "http://dev.bukkit.org/bukkit-plugins/worldedit/",
            "MCVers": 1.5,
            "Match": "legacy"
        },
        "World Guard": {
            "Beta": false,
            "Date": 1,
            "Dev": false,
            "Direct": "http://dev.bukkit.org/media/files/706/562/worldguard-5.7.5.zip",
            "FileName": "WorldGuard 5.7.5",
            "Home": "http://dev.bukkit.org/bukkit-plugins/worldguard/",
            "MCVers": 1.5,
            "Match": "legacy"
        },
        "mcMMO": {
            "Beta": true,
            "Date": 1,
            "Dev": false,
            "Direct": "http://dev.bukkit.org/media/files/703/728/mcMMO.jar",
            "FileName": "mcMMO 1.4.06-beta5",
            "Home": "http://dev.bukkit.org/bukkit-plugins/mcmmo/",
            "MCVers": 1.5,
            "Match": "legacy"
        }
    }
}